Análise Inferencial - 2 Fundamentos da Inferência Estatística
…
Esse histograma representa a distribuição amostral da proporção para uma tamanho de amostra fixo \(n\).

Verificação de aprendizagem

Por que foi importante misturar a tigela antes de retirarmos as bolas?

Por que os 33 grupos de amigos não obtiveram todos o mesmo número de bolas vermelhas entre as 50 retiradas e, consequentemente, proporções diferentes de bolas vermelhas?

2.3 Experimento Virtual

No pacote moderndive existe um data frame chamado bowl. As linhas de bowl correspondem exatamente ao conteúdo da urna real apresentada em sala de aula.

bowl

# A tibble: 2,400 × 2
   ball_ID color
     <int> <chr>
 1       1 white
 2       2 white
 3       3 white
 4       4 red  
 5       5 white
 6       6 white
 7       7 red  
 8       8 white
 9       9 red  
10      10 white
# ℹ 2,390 more rows

Observe que bowl possui 2400 linhas, o que nos indica que a urna contém 2400 bolas de mesmo tamanho. A primeira variável, ball_ID, é usada como uma variável de identificação, conforme discutido em sala de aula, nenhuma das bolas da urna real possui números marcados. A segunda variável, color, indica se uma determinada bola virtual é vermelha ou branca. Visualize o conteúdo de bowl no visualizador de dados do RStudio e percorra as linhas para se convencer de que bowl é, de fato, um análogo virtual da urna real apresentada em sala.

Agora precisamos de um análogo virtual da pá para gerar amostras virtuais de 50 bolas. Para isso, vamos utilizar a função rep_sample_n(), incluída no pacote moderndive. Essa função permite realizar amostragens repetidas (ou replicadas) de tamanho (n).

pa_virtual <- bowl %>%
rep_sample_n(size = 50)

pa_virtual

# A tibble: 50 × 3
# Groups:   replicate [1]
   replicate ball_ID color
       <int>   <int> <chr>
 1         1    2005 red  
 2         1    1234 white
 3         1     505 red  
 4         1    1709 red  
 5         1    2028 white
 6         1    2000 white
 7         1    1328 red  
 8         1    2317 white
 9         1    2084 white
10         1    1556 red  
# ℹ 40 more rows

A variável ball_ID identifica quais das 2400 bolas do objeto bowl foram incluídas na nossa amostra de 50 bolas, enquanto color indica a cor de cada bola. No entanto, o que indica a variável replicate?

No caso de pa_virtual, a variável replicate é igual a 1 em todas as 50 linhas. Isso nos informa que essas 50 linhas correspondem à nossa primeira amostra. Veremos em breve que, quando realizarmos 33 amostragens virtuais, a variável replicate assumirá valores entre 1 e 33.

Vamos agora calcular a proporção de bolas vermelhas em nossa amostra virtual utilizando os verbos de manipulação de dados do dplyr. Primeiro, para cada uma das 50 bolas amostradas, vamos identificar se ela é vermelha ou não, utilizando um teste de igualdade com ==. Em seguida, criaremos uma nova variável booleana is_red usando a função mutate():

pa_virtual %>%
mutate(is_red = (color == "red"))

# A tibble: 50 × 4
# Groups:   replicate [1]
   replicate ball_ID color is_red
       <int>   <int> <chr> <lgl> 
 1         1    2005 red   TRUE  
 2         1    1234 white FALSE 
 3         1     505 red   TRUE  
 4         1    1709 red   TRUE  
 5         1    2028 white FALSE 
 6         1    2000 white FALSE 
 7         1    1328 red   TRUE  
 8         1    2317 white FALSE 
 9         1    2084 white FALSE 
10         1    1556 red   TRUE  
# ℹ 40 more rows
…
Vamos agora realizar o análogo virtual de ter 33 grupos de estudantes usando a pá de amostragem!

Lembre-se de que, no exercício de amostragem realizada em sala de aula, tivemos 33 grupos de estudantes, cada um utilizando a pá, o que resultou em 33 amostras de tamanho 50. Em seguida, usamos essas 33 amostras para calcular 33 proporções. Em outras palavras, repetimos/replicamos o uso da pá 33 vezes.

Podemos realizar essa amostragem repetida/replicada de forma virtual utilizando novamente a função rep_sample_n(), mas agora adicionando o argumento reps = 33. Isso indica ao R que desejamos repetir a amostragem 33 vezes.

Vamos salvar esses resultados em um data frame chamado virtual_samples. Embora apresentemos a seguir uma prévia das primeiras 10 linhas de virtual_samples, recomendamos fortemente que você explore todo o seu conteúdo utilizando o visualizador de planilhas do RStudio, executando o comando View(virtual_samples).

amostra_virtual <- bowl %>%
rep_sample_n(size = 50, reps = 33)

amostra_virtual

# A tibble: 1,650 × 3
# Groups:   replicate [33]
   replicate ball_ID color
       <int>   <int> <chr>
 1         1     742 white
 2         1     227 red  
 3         1    1358 white
 4         1    1041 red  
 5         1    2175 white
 6         1     248 white
 7         1     628 white
 8         1    1477 red  
 9         1    2154 white
10         1    1920 white
# ℹ 1,640 more rows

Observe, no visualizador de planilhas, que as primeiras 50 linhas da variável replicate são iguais a 1, enquanto as 50 linhas seguintes de replicate são iguais a 2. Isso nos indica que as primeiras 50 linhas correspondem à primeira amostra de 50 bolas, enquanto as próximas 50 linhas correspondem à segunda amostra de 50 bolas. Esse padrão se repete para todas as 33 replicações (reps = 33) e, portanto, o data frame amostra_virtual possui (33 = 1650) linhas.

Vamos agora usar amostra_virtual para calcular as 33 proporções de bolas vermelhas resultantes. Utilizaremos os mesmos verbos do dplyr de antes, mas agora com um group_by() adicional na variável replicate. Ao definir previamente a variável de agrupamento como metadado antes de aplicar summarize(), obteremos 33 proporções diferentes de bolas vermelhas. A seguir, exibimos uma prévia das primeiras 10 das 33 linhas resultantes:

virtual_prop_red <- amostra_virtual %>%
group_by(replicate) %>%
summarize(red = sum(color == "red")) %>%
mutate(prop_red = red / 50)

virtual_prop_red

# A tibble: 33 × 3
   replicate   red prop_red
       <int> <int>    <dbl>
 1         1    21     0.42
 2         2    18     0.36
 3         3    21     0.42
 4         4    15     0.3 
 5         5    16     0.32
 6         6    25     0.5 
 7         7    21     0.42
 8         8    14     0.28
 9         9    22     0.44
10        10    24     0.48
# ℹ 23 more rows
…
