1 Fundamentos da Inferência Estatística
…
Esse histograma representa a distribuição amostral da proporção para uma tamanho de amostra fixo \(n\).

Verificação de aprendizagem

Por que foi importante misturar a tigela antes de retirarmos as bolas?

Por que os 20 grupos de amigos não obtiveram todos o mesmo número de bolas vermelhas entre as 50 retiradas e, consequentemente, proporções diferentes de bolas vermelhas?

1.4 Experimento Virtual

No pacote moderndive existe um data frame chamado bowl. As linhas de bowl correspondem exatamente ao conteúdo da urna real apresentada em sala de aula.

bowl

# A tibble: 2,400 × 2
   ball_ID color
     <int> <chr>
 1       1 white
 2       2 white
 3       3 white
 4       4 red  
 5       5 white
 6       6 white
 7       7 red  
 8       8 white
 9       9 red  
10      10 white
# ℹ 2,390 more rows

Observe que bowl possui 2400 linhas, o que nos indica que a urna contém 2400 bolas de mesmo tamanho. A primeira variável, ball_ID, é usada como uma variável de identificação, conforme discutido em sala de aula, nenhuma das bolas da urna real possui números marcados. A segunda variável, color, indica se uma determinada bola virtual é vermelha ou branca. Visualize o conteúdo de bowl no visualizador de dados do RStudio e percorra as linhas para se convencer de que bowl é, de fato, um análogo virtual da urna real apresentada em sala.

Agora precisamos de um análogo virtual da pá para gerar amostras virtuais de 50 bolas. Para isso, vamos utilizar a função rep_sample_n(), incluída no pacote moderndive. Essa função permite realizar amostragens repetidas (ou replicadas) de tamanho (n).

set.seed(2026) #fixando semente
pa_virtual <- bowl %>%
rep_sample_n(size = 50)

pa_virtual

# A tibble: 50 × 3
# Groups:   replicate [1]
   replicate ball_ID color
       <int>   <int> <chr>
 1         1     733 white
 2         1     993 red  
 3         1    2342 red  
 4         1    1647 white
 5         1    1883 red  
 6         1     164 red  
 7         1    1200 red  
 8         1     389 white
 9         1     287 white
10         1    2362 red  
# ℹ 40 more rows

A variável ball_ID identifica quais das 2400 bolas do objeto bowl foram incluídas na nossa amostra de 50 bolas, enquanto color indica a cor de cada bola. No entanto, o que indica a variável replicate?

No caso de pa_virtual, a variável replicate é igual a 1 em todas as 50 linhas. Isso nos informa que essas 50 linhas correspondem à nossa primeira amostra. Veremos em breve que, quando realizarmos 20 amostragens virtuais, a variável replicate assumirá valores entre 1 e 20.

Vamos agora calcular a proporção de bolas vermelhas em nossa amostra virtual utilizando os verbos de manipulação de dados do dplyr. Primeiro, para cada uma das 50 bolas amostradas, vamos identificar se ela é vermelha ou não, utilizando um teste de igualdade com ==. Em seguida, criaremos uma nova variável booleana is_red usando a função mutate():

pa_virtual <- pa_virtual %>%
mutate(is_red = (color == "red"))

pa_virtual

# A tibble: 50 × 4
# Groups:   replicate [1]
   replicate ball_ID color is_red
       <int>   <int> <chr> <lgl> 
 1         1     733 white FALSE 
 2         1     993 red   TRUE  
 3         1    2342 red   TRUE  
 4         1    1647 white FALSE 
 5         1    1883 red   TRUE  
 6         1     164 red   TRUE  
 7         1    1200 red   TRUE  
 8         1     389 white FALSE 
 9         1     287 white FALSE 
10         1    2362 red   TRUE  
# ℹ 40 more rows
…
Vamos agora realizar o análogo virtual de ter 20 grupos de estudantes usando a pá de amostragem!

Lembre-se de que, no exercício de amostragem realizada em sala de aula, tivemos 20 grupos de estudantes, cada um utilizando a pá, o que resultou em 20 amostras de tamanho 50. Em seguida, usamos essas 20 amostras para calcular 20 proporções. Em outras palavras, repetimos/replicamos o uso da pá 20 vezes.

Podemos realizar essa amostragem repetida/replicada de forma virtual utilizando novamente a função rep_sample_n(), mas agora adicionando o argumento reps = 20. Isso indica ao R que desejamos repetir a amostragem 20 vezes.

Vamos salvar esses resultados em um data frame chamado virtual_samples. Embora apresentemos a seguir uma prévia das primeiras 10 linhas de virtual_samples, recomendamos fortemente que você explore todo o seu conteúdo utilizando o visualizador de planilhas do RStudio, executando o comando View(virtual_samples).

set.seed(2026)
amostra_virtual <- bowl %>%
rep_sample_n(size = 50, reps = 20)

amostra_virtual

# A tibble: 1,000 × 3
# Groups:   replicate [20]
   replicate ball_ID color
       <int>   <int> <chr>
 1         1     733 white
 2         1     993 red  
 3         1    2342 red  
 4         1    1647 white
 5         1    1883 red  
 6         1     164 red  
 7         1    1200 red  
 8         1     389 white
 9         1     287 white
10         1    2362 red  
# ℹ 990 more rows
…
Observando o histograma produzido no item 2), você diria que amostrar 50 bolas em que 30% são vermelhas é provável ou improvável? E quanto a amostrar 50 bolas em que 10% são vermelhas?

1.5 Conceitos Importantes

Primeiramente, uma população é um conjunto de indivíduos ou observações de interesse. Isso também é comumente denominado população de estudo. Denotamos matematicamente o tamanho da população utilizando a letra maiúscula \(N\).

Um parâmetro populacional é algum resumo numérico sobre a população que é desconhecido, mas que você gostaria de saber. Por exemplo, quando essa quantidade é uma média, como a altura média de todos os canadenses, o parâmetro populacional de interesse é a média populacional.

Um censo é uma enumeração exaustiva ou contagem de todos os \(N\) indivíduos da população. Fazemos isso para calcular o valor exato do parâmetro populacional. Vale notar que, à medida que o número \(N\) de indivíduos em nossa população aumenta, a realização de um censo se torna mais cara (em termos de tempo, energia e dinheiro).

Na nossa atividade de amostragem, a população (de estudo) é o conjunto de \(N = 2400\) bolas vermelhas e brancas, todas de mesmo tamanho, contidas na urna. Lembre-se de que também representamos a urna “virtualmente” no data frame bowl.

bowl

# A tibble: 2,400 × 2
   ball_ID color
     <int> <chr>
 1       1 white
 2       2 white
 3       3 white
 4       4 red  
 5       5 white
 6       6 white
 7       7 red  
 8       8 white
 9       9 red  
10      10 white
# ℹ 2,390 more rows
…
